stat,2000,2005,2006,2007,2008,2009,2010,2011,2012,2013
Česko,10.96,13.05,13.52,13.73,14.49,15.54,16.76,18.24,19.27,20.45
Průměr OECD,22,26.94,27.49,28.03,28.85,29.95,30.66,31.18,32.57,33.26
Maďarsko,14.04,17.08,17.69,18.04,19.19,19.86,20.12,21.12,22.04,22.5
Polsko,11.36,16.92,17.89,18.68,19.56,21.15,22.46,23.28,24.51,25.75
Slovensko,10.37,14,14.56,14.43,14.76,15.76,17.32,18.61,18.97,19.87
Turecko,8.34,10.23,10.91,11.29,12.04,12.71,13.11,14.03,15.29,15.9
Kanada,40.09,45.94,46.91,48.22,48.76,49.5,50.59,51.32,52.58,53.21
