rok,prijati,maturanti,devatenatileti
1999,57600,,
2000,52248,,141206
2001,64001,,139704
2002,70464,,134929
2003,79524,,135777
2004,83100,126270,135500
2005,86900,124633,133059
2006,95900,122239,131319
2007,103500,118420,134946
2008,108783,115506,131517
2009,110776,109078,132555
2010,112520,103069,130338
2011,109033,100723,123426
2012,103800,95584,122809
2013,99100,85444,108969
2014,89200,,97837
